{
  "src": "./src",
  "dest": "./public",
  "webroot": "",

  "html": {
    "src": "html",
    "dest": "./"
  },

  "static": {
    "src": "static",
    "dest": "./"
  },

  "javascripts": {
    "src": "javascripts",
    "dest": "javascripts"
  },

  "stylesheets": {
    "src": "stylesheets",
    "dest": "stylesheets"
  },

  "images": {
    "src": "images",
    "dest": "images"
  },

  "fonts": {
    "src": "fonts",
    "dest": "fonts"
  },

  "icons": {
    "src": "icons",
    "dest": "images"
  }
}
